0 admin admin 0
42 user pass 1
1 user1 pass 1
2 user2 pass 1
3 user3 pass 1
4 user4 pass 1
5 user5 pass 1
6 user6 pass 1
7 user7 pass 1
8 user8 pass 1
9 user9 pass 1
10 user10 pass 1
11 user11 pass 1
12 user12 pass 1
13 user13 pass 1
14 user14 pass 1
15 user15 pass 1
16 user16 pass 1
17 user17 pass 1
18 user18 pass 1
19 user19 pass 1
20 user20 pass 1
21 user21 pass 1
22 user22 pass 1
23 user23 pass 1
24 user24 pass 1
25 user25 pass 1
26 user26 pass 1
27 user27 pass 1
28 user28 pass 1
29 user29 pass 1
30 user30 pass 1
